\relax 
\@writefile{toc}{\contentsline {section}{\numberline {1}Description}{2}}
\@writefile{toc}{\contentsline {section}{\numberline {2}Static System}{3}}
\@writefile{lof}{\contentsline {figure}{\numberline {1}{\ignorespaces The static system in Vivado.}}{3}}
\newlabel{fig:partial_area}{{1}{3}}
\@writefile{lof}{\contentsline {figure}{\numberline {2}{\ignorespaces The partial area is divided in $2\times 2$ slots. The slots have a dimension of $4\times 25$.}}{3}}
\newlabel{fig:partial_area}{{2}{3}}
\@writefile{lof}{\contentsline {figure}{\numberline {3}{\ignorespaces The AES flow.}}{4}}
\newlabel{fig:partial_area}{{3}{4}}
\newlabel{lis:partial_area_component}{{1}{5}}
\@writefile{lol}{\contentsline {lstlisting}{\numberline {1}The component declaration of the partial area.}{5}}
\@writefile{toc}{\contentsline {section}{\numberline {3}Module}{7}}
\@writefile{lof}{\contentsline {figure}{\numberline {4}{\ignorespaces The module has one input (west) and three outputs (north, east, and south).}}{7}}
\newlabel{fig:partial_area}{{4}{7}}
