# compile vhdl design source files
vhdl xil_defaultlib  \
"../../../../Static.srcs/sources_1/new/toggle.vhd" \
"../../../../Static.srcs/sources_1/new/top.vhd" \
"../../../../Static.srcs/sim_1/new/top_tb.vhd" \

# Do not sort compile order
nosort
